[
  {
    "date": "2014-01-02", 
    "last": 164.43704
  }, 
  {
    "date": "2014-01-03", 
    "last": 165.41004
  }, 
  {
    "date": "2014-01-07", 
    "last": 163.56134
  }, 
  {
    "date": "2014-01-08", 
    "last": 164.53434
  }, 
  {
    "date": "2014-01-09", 
    "last": 164.72894
  }, 
  {
    "date": "2014-01-10", 
    "last": 165.21544
  }, 
  {
    "date": "2014-01-13", 
    "last": 165.89654
  }, 
  {
    "date": "2014-01-14", 
    "last": 164.53434
  }, 
  {
    "date": "2014-01-15", 
    "last": 165.21544
  }, 
  {
    "date": "2014-01-16", 
    "last": 165.11814
  }, 
  {
    "date": "2014-01-17", 
    "last": 170.95614
  }, 
  {
    "date": "2014-01-20", 
    "last": 170.95614
  }, 
  {
    "date": "2014-01-21", 
    "last": 167.84254
  }, 
  {
    "date": "2014-01-22", 
    "last": 161.22614
  }, 
  {
    "date": "2014-01-23", 
    "last": 162.00454
  }, 
  {
    "date": "2014-01-24", 
    "last": 159.37744
  }, 
  {
    "date": "2014-01-27", 
    "last": 157.72334
  }, 
  {
    "date": "2014-01-28", 
    "last": 158.98824
  }, 
  {
    "date": "2014-01-29", 
    "last": 159.28014
  }, 
  {
    "deviation": "3.65", 
    "upperBand": "171.10", 
    "last": 159.08554, 
    "lowerBand": "156.51", 
    "middleBand": "163.80", 
    "date": "2014-01-30"
  }, 
  {
    "deviation": "3.82", 
    "upperBand": "171.15", 
    "last": 158.50174, 
    "lowerBand": "155.87", 
    "middleBand": "163.51", 
    "date": "2014-01-31"
  }, 
  {
    "deviation": "4.15", 
    "upperBand": "171.33", 
    "last": 155.68004, 
    "lowerBand": "154.72", 
    "middleBand": "163.02", 
    "date": "2014-02-03"
  }, 
  {
    "deviation": "4.48", 
    "upperBand": "171.56", 
    "last": 155.29084, 
    "lowerBand": "153.65", 
    "middleBand": "162.61", 
    "date": "2014-02-04"
  }, 
  {
    "deviation": "4.59", 
    "upperBand": "171.43", 
    "last": 157.52874, 
    "lowerBand": "153.09", 
    "middleBand": "162.26", 
    "date": "2014-02-05"
  }, 
  {
    "deviation": "4.63", 
    "upperBand": "171.19", 
    "last": 158.20984, 
    "lowerBand": "152.67", 
    "middleBand": "161.93", 
    "date": "2014-02-06"
  }, 
  {
    "deviation": "4.59", 
    "upperBand": "170.84", 
    "last": 159.66934, 
    "lowerBand": "152.47", 
    "middleBand": "161.65", 
    "date": "2014-02-07"
  }, 
  {
    "deviation": "4.51", 
    "upperBand": "170.35", 
    "last": 159.28014, 
    "lowerBand": "152.30", 
    "middleBand": "161.32", 
    "date": "2014-02-10"
  }, 
  {
    "deviation": "4.45", 
    "upperBand": "170.03", 
    "last": 160.64234, 
    "lowerBand": "152.22", 
    "middleBand": "161.13", 
    "date": "2014-02-11"
  }, 
  {
    "deviation": "4.36", 
    "upperBand": "169.58", 
    "last": 159.96124, 
    "lowerBand": "152.15", 
    "middleBand": "160.87", 
    "date": "2014-02-12"
  }, 
  {
    "deviation": "4.29", 
    "upperBand": "169.08", 
    "last": 157.82064, 
    "lowerBand": "151.92", 
    "middleBand": "160.50", 
    "date": "2014-02-13"
  }, 
  {
    "deviation": "3.56", 
    "upperBand": "167.04", 
    "last": 159.18284, 
    "lowerBand": "152.79", 
    "middleBand": "159.91", 
    "date": "2014-02-14"
  }, 
  {
    "deviation": "2.51", 
    "upperBand": "164.32", 
    "last": 158.89094, 
    "lowerBand": "154.30", 
    "middleBand": "159.31", 
    "date": "2014-02-17"
  }, 
  {
    "deviation": "1.57", 
    "upperBand": "161.97", 
    "last": 158.50174, 
    "lowerBand": "155.71", 
    "middleBand": "158.84", 
    "date": "2014-02-18"
  }, 
  {
    "deviation": "1.55", 
    "upperBand": "161.93", 
    "last": 161.03154, 
    "lowerBand": "155.73", 
    "middleBand": "158.83", 
    "date": "2014-02-19"
  }, 
  {
    "deviation": "1.40", 
    "upperBand": "161.54", 
    "last": 160.05854, 
    "lowerBand": "155.93", 
    "middleBand": "158.74", 
    "date": "2014-02-20"
  }, 
  {
    "deviation": "1.41", 
    "upperBand": "161.57", 
    "last": 159.66934, 
    "lowerBand": "155.93", 
    "middleBand": "158.75", 
    "date": "2014-02-21"
  }, 
  {
    "deviation": "1.40", 
    "upperBand": "161.64", 
    "last": 159.57204, 
    "lowerBand": "156.04", 
    "middleBand": "158.84", 
    "date": "2014-02-24"
  }, 
  {
    "deviation": "1.40", 
    "upperBand": "161.66", 
    "last": 159.28014, 
    "lowerBand": "156.05", 
    "middleBand": "158.86", 
    "date": "2014-02-25"
  }, 
  {
    "deviation": "1.46", 
    "upperBand": "161.85", 
    "last": 160.73964, 
    "lowerBand": "156.01", 
    "middleBand": "158.93", 
    "date": "2014-02-26"
  }, 
  {
    "deviation": "1.50", 
    "upperBand": "161.99", 
    "last": 160.44774, 
    "lowerBand": "156.00", 
    "middleBand": "159.00", 
    "date": "2014-02-27"
  }, 
  {
    "deviation": "1.49", 
    "upperBand": "162.02", 
    "last": 159.18284, 
    "lowerBand": "156.04", 
    "middleBand": "159.03", 
    "date": "2014-02-28"
  }, 
  {
    "deviation": "1.39", 
    "upperBand": "161.86", 
    "last": 156.75034, 
    "lowerBand": "156.31", 
    "middleBand": "159.09", 
    "date": "2014-03-03"
  }, 
  {
    "deviation": "1.12", 
    "upperBand": "161.60", 
    "last": 160.64234, 
    "lowerBand": "157.11", 
    "middleBand": "159.35", 
    "date": "2014-03-04"
  }, 
  {
    "deviation": "1.08", 
    "upperBand": "161.69", 
    "last": 160.83694, 
    "lowerBand": "157.35", 
    "middleBand": "159.52", 
    "date": "2014-03-05"
  }, 
  {
    "deviation": "1.15", 
    "upperBand": "161.99", 
    "last": 161.80994, 
    "lowerBand": "157.40", 
    "middleBand": "159.70", 
    "date": "2014-03-06"
  }, 
  {
    "deviation": "1.18", 
    "upperBand": "161.99", 
    "last": 158.50174, 
    "lowerBand": "157.29", 
    "middleBand": "159.64", 
    "date": "2014-03-07"
  }, 
  {
    "deviation": "1.28", 
    "upperBand": "162.10", 
    "last": 157.33414, 
    "lowerBand": "156.98", 
    "middleBand": "159.54", 
    "date": "2014-03-10"
  }, 
  {
    "deviation": "1.41", 
    "upperBand": "162.15", 
    "last": 156.55574, 
    "lowerBand": "156.52", 
    "middleBand": "159.34", 
    "date": "2014-03-11"
  }, 
  {
    "deviation": "1.47", 
    "upperBand": "162.14", 
    "last": 157.23684, 
    "lowerBand": "156.26", 
    "middleBand": "159.20", 
    "date": "2014-03-12"
  }, 
  {
    "deviation": "1.64", 
    "upperBand": "162.37", 
    "last": 155.68004, 
    "lowerBand": "155.82", 
    "middleBand": "159.10", 
    "date": "2014-03-13"
  }, 
  {
    "deviation": "2.06", 
    "upperBand": "162.92", 
    "last": 153.34484, 
    "lowerBand": "154.68", 
    "middleBand": "158.80", 
    "date": "2014-03-14"
  }, 
  {
    "deviation": "2.20", 
    "upperBand": "163.03", 
    "last": 155.19354, 
    "lowerBand": "154.21", 
    "middleBand": "158.62", 
    "date": "2014-03-17"
  }, 
  {
    "deviation": "2.27", 
    "upperBand": "163.04", 
    "last": 156.16654, 
    "lowerBand": "153.96", 
    "middleBand": "158.50", 
    "date": "2014-03-18"
  }, 
  {
    "deviation": "2.26", 
    "upperBand": "162.77", 
    "last": 155.77734, 
    "lowerBand": "153.71", 
    "middleBand": "158.24", 
    "date": "2014-03-19"
  }, 
  {
    "deviation": "2.24", 
    "upperBand": "162.57", 
    "last": 156.84764, 
    "lowerBand": "153.59", 
    "middleBand": "158.08", 
    "date": "2014-03-20"
  }, 
  {
    "deviation": "2.22", 
    "upperBand": "162.40", 
    "last": 157.52874, 
    "lowerBand": "153.54", 
    "middleBand": "157.97", 
    "date": "2014-03-21"
  }, 
  {
    "deviation": "2.27", 
    "upperBand": "162.29", 
    "last": 155.09624, 
    "lowerBand": "153.21", 
    "middleBand": "157.75", 
    "date": "2014-03-24"
  }, 
  {
    "deviation": "2.31", 
    "upperBand": "162.15", 
    "last": 155.19354, 
    "lowerBand": "152.93", 
    "middleBand": "157.54", 
    "date": "2014-03-25"
  }, 
  {
    "deviation": "2.19", 
    "upperBand": "161.78", 
    "last": 157.91794, 
    "lowerBand": "153.02", 
    "middleBand": "157.40", 
    "date": "2014-03-26"
  }, 
  {
    "deviation": "2.10", 
    "upperBand": "161.52", 
    "last": 158.79364, 
    "lowerBand": "153.12", 
    "middleBand": "157.32", 
    "date": "2014-03-27"
  }, 
  {
    "deviation": "2.26", 
    "upperBand": "161.96", 
    "last": 161.51804, 
    "lowerBand": "152.91", 
    "middleBand": "157.44", 
    "date": "2014-03-28"
  }, 
  {
    "deviation": "2.54", 
    "upperBand": "162.83", 
    "last": 162.88024, 
    "lowerBand": "152.65", 
    "middleBand": "157.74", 
    "date": "2014-03-31"
  }, 
  {
    "deviation": "2.80", 
    "upperBand": "163.50", 
    "last": 163.75594, 
    "lowerBand": "152.30", 
    "middleBand": "157.90", 
    "date": "2014-04-01"
  }, 
  {
    "deviation": "3.09", 
    "upperBand": "164.27", 
    "last": 164.53434, 
    "lowerBand": "151.89", 
    "middleBand": "158.08", 
    "date": "2014-04-02"
  }, 
  {
    "deviation": "3.38", 
    "upperBand": "165.00", 
    "last": 165.21544, 
    "lowerBand": "151.50", 
    "middleBand": "158.25", 
    "date": "2014-04-03"
  }, 
  {
    "deviation": "3.76", 
    "upperBand": "166.13", 
    "last": 165.79924, 
    "lowerBand": "151.11", 
    "middleBand": "158.62", 
    "date": "2014-04-04"
  }, 
  {
    "deviation": "3.97", 
    "upperBand": "166.93", 
    "last": 164.72894, 
    "lowerBand": "151.05", 
    "middleBand": "158.99", 
    "date": "2014-04-07"
  }, 
  {
    "deviation": "4.03", 
    "upperBand": "167.39", 
    "last": 163.26944, 
    "lowerBand": "151.26", 
    "middleBand": "159.32", 
    "date": "2014-04-08"
  }, 
  {
    "deviation": "4.13", 
    "upperBand": "167.92", 
    "last": 164.04784, 
    "lowerBand": "151.41", 
    "middleBand": "159.66", 
    "date": "2014-04-09"
  }, 
  {
    "deviation": "4.15", 
    "upperBand": "168.41", 
    "last": 164.53434, 
    "lowerBand": "151.80", 
    "middleBand": "160.11", 
    "date": "2014-04-10"
  }, 
  {
    "deviation": "3.89", 
    "upperBand": "168.38", 
    "last": 163.07484, 
    "lowerBand": "152.81", 
    "middleBand": "160.59", 
    "date": "2014-04-11"
  }, 
  {
    "deviation": "3.73", 
    "upperBand": "168.45", 
    "last": 163.26944, 
    "lowerBand": "153.54", 
    "middleBand": "161.00", 
    "date": "2014-04-14"
  }, 
  {
    "deviation": "3.56", 
    "upperBand": "168.41", 
    "last": 161.90724, 
    "lowerBand": "154.16", 
    "middleBand": "161.28", 
    "date": "2014-04-15"
  }, 
  {
    "deviation": "3.35", 
    "upperBand": "168.37", 
    "last": 163.36674, 
    "lowerBand": "154.96", 
    "middleBand": "161.66", 
    "date": "2014-04-16"
  }, 
  {
    "deviation": "3.20", 
    "upperBand": "168.44", 
    "last": 164.19379, 
    "lowerBand": "155.62", 
    "middleBand": "162.03", 
    "date": "2014-04-17"
  }, 
  {
    "deviation": "3.20", 
    "upperBand": "168.91", 
    "last": 166.96684, 
    "lowerBand": "156.10", 
    "middleBand": "162.50", 
    "date": "2014-04-22"
  }, 
  {
    "deviation": "2.80", 
    "upperBand": "168.66", 
    "last": 166.09114, 
    "lowerBand": "157.45", 
    "middleBand": "163.05", 
    "date": "2014-04-23"
  }, 
  {
    "deviation": "2.26", 
    "upperBand": "168.15", 
    "last": 166.77224, 
    "lowerBand": "159.11", 
    "middleBand": "163.63", 
    "date": "2014-04-24"
  }, 
  {
    "deviation": "1.96", 
    "upperBand": "168.00", 
    "last": 166.96684, 
    "lowerBand": "160.17", 
    "middleBand": "164.08", 
    "date": "2014-04-25"
  }, 
  {
    "deviation": "1.60", 
    "upperBand": "167.68", 
    "last": 166.48034, 
    "lowerBand": "161.26", 
    "middleBand": "164.47", 
    "date": "2014-04-28"
  }, 
  {
    "deviation": "2.59", 
    "upperBand": "169.31", 
    "last": 154.80434, 
    "lowerBand": "158.96", 
    "middleBand": "164.13", 
    "date": "2014-04-29"
  }, 
  {
    "deviation": "3.20", 
    "upperBand": "170.16", 
    "last": 155.48544, 
    "lowerBand": "157.37", 
    "middleBand": "163.76", 
    "date": "2014-04-30"
  }, 
  {
    "deviation": "3.87", 
    "upperBand": "171.01", 
    "last": 153.73404, 
    "lowerBand": "155.52", 
    "middleBand": "163.26", 
    "date": "2014-05-02"
  }, 
  {
    "deviation": "4.93", 
    "upperBand": "172.35", 
    "last": 149.16094, 
    "lowerBand": "152.64", 
    "middleBand": "162.49", 
    "date": "2014-05-05"
  }, 
  {
    "deviation": "5.71", 
    "upperBand": "173.10", 
    "last": 148.77174, 
    "lowerBand": "150.25", 
    "middleBand": "161.67", 
    "date": "2014-05-06"
  }, 
  {
    "deviation": "6.38", 
    "upperBand": "173.53", 
    "last": 147.70144, 
    "lowerBand": "148.00", 
    "middleBand": "160.77", 
    "date": "2014-05-07"
  }, 
  {
    "deviation": "6.89", 
    "upperBand": "173.71", 
    "last": 147.89604, 
    "lowerBand": "146.14", 
    "middleBand": "159.92", 
    "date": "2014-05-08"
  }, 
  {
    "deviation": "7.27", 
    "upperBand": "173.73", 
    "last": 148.57714, 
    "lowerBand": "144.65", 
    "middleBand": "159.19", 
    "date": "2014-05-09"
  }, 
  {
    "deviation": "7.33", 
    "upperBand": "173.26", 
    "last": 152.27454, 
    "lowerBand": "143.94", 
    "middleBand": "158.60", 
    "date": "2014-05-12"
  }, 
  {
    "deviation": "7.37", 
    "upperBand": "172.67", 
    "last": 151.20424, 
    "lowerBand": "143.20", 
    "middleBand": "157.93", 
    "date": "2014-05-13"
  }, 
  {
    "deviation": "7.37", 
    "upperBand": "172.13", 
    "last": 152.07994, 
    "lowerBand": "142.64", 
    "middleBand": "157.39", 
    "date": "2014-05-14"
  }, 
  {
    "deviation": "7.34", 
    "upperBand": "171.49", 
    "last": 151.78804, 
    "lowerBand": "142.14", 
    "middleBand": "156.81", 
    "date": "2014-05-15"
  }, 
  {
    "deviation": "7.34", 
    "upperBand": "170.95", 
    "last": 151.10694, 
    "lowerBand": "141.59", 
    "middleBand": "156.27", 
    "date": "2014-05-16"
  }, 
  {
    "deviation": "7.22", 
    "upperBand": "170.12", 
    "last": 151.39884, 
    "lowerBand": "141.22", 
    "middleBand": "155.67", 
    "date": "2014-05-19"
  }, 
  {
    "deviation": "6.98", 
    "upperBand": "169.05", 
    "last": 152.27454, 
    "lowerBand": "141.11", 
    "middleBand": "155.08", 
    "date": "2014-05-20"
  }, 
  {
    "deviation": "6.46", 
    "upperBand": "167.23", 
    "last": 151.39884, 
    "lowerBand": "141.37", 
    "middleBand": "154.30", 
    "date": "2014-05-21"
  }, 
  {
    "deviation": "5.89", 
    "upperBand": "165.35", 
    "last": 151.78804, 
    "lowerBand": "141.81", 
    "middleBand": "153.58", 
    "date": "2014-05-22"
  }, 
  {
    "deviation": "5.06", 
    "upperBand": "163.08", 
    "last": 154.31784, 
    "lowerBand": "142.85", 
    "middleBand": "152.96", 
    "date": "2014-05-23"
  }, 
  {
    "deviation": "3.93", 
    "upperBand": "160.20", 
    "last": 154.41514, 
    "lowerBand": "144.46", 
    "middleBand": "152.33", 
    "date": "2014-05-26"
  }, 
  {
    "deviation": "2.33", 
    "upperBand": "156.40", 
    "last": 154.75569, 
    "lowerBand": "147.09", 
    "middleBand": "151.75", 
    "date": "2014-05-27"
  }, 
  {
    "deviation": "2.29", 
    "upperBand": "156.30", 
    "last": 154.22054, 
    "lowerBand": "147.13", 
    "middleBand": "151.72", 
    "date": "2014-05-28"
  }, 
  {
    "deviation": "2.22", 
    "upperBand": "156.10", 
    "last": 154.41514, 
    "lowerBand": "147.23", 
    "middleBand": "151.66", 
    "date": "2014-05-30"
  }, 
  {
    "deviation": "2.21", 
    "upperBand": "156.07", 
    "last": 153.53944, 
    "lowerBand": "147.24", 
    "middleBand": "151.65", 
    "date": "2014-06-02"
  }, 
  {
    "deviation": "2.14", 
    "upperBand": "156.13", 
    "last": 152.85834, 
    "lowerBand": "147.55", 
    "middleBand": "151.84", 
    "date": "2014-06-03"
  }, 
  {
    "deviation": "2.03", 
    "upperBand": "156.05", 
    "last": 151.98264, 
    "lowerBand": "147.95", 
    "middleBand": "152.00", 
    "date": "2014-06-04"
  }, 
  {
    "deviation": "1.78", 
    "upperBand": "155.83", 
    "last": 153.05294, 
    "lowerBand": "148.71", 
    "middleBand": "152.27", 
    "date": "2014-06-05"
  }, 
  {
    "deviation": "1.52", 
    "upperBand": "155.63", 
    "last": 154.31784, 
    "lowerBand": "149.54", 
    "middleBand": "152.59", 
    "date": "2014-06-09"
  }, 
  {
    "deviation": "1.26", 
    "upperBand": "155.39", 
    "last": 154.31784, 
    "lowerBand": "150.36", 
    "middleBand": "152.88", 
    "date": "2014-06-10"
  }, 
  {
    "deviation": "1.25", 
    "upperBand": "155.39", 
    "last": 152.56644, 
    "lowerBand": "150.39", 
    "middleBand": "152.89", 
    "date": "2014-06-11"
  }, 
  {
    "deviation": "1.21", 
    "upperBand": "155.35", 
    "last": 152.07994, 
    "lowerBand": "150.52", 
    "middleBand": "152.93", 
    "date": "2014-06-12"
  }, 
  {
    "deviation": "1.32", 
    "upperBand": "155.49", 
    "last": 150.32854, 
    "lowerBand": "150.20", 
    "middleBand": "152.85", 
    "date": "2014-06-13"
  }, 
  {
    "deviation": "1.46", 
    "upperBand": "155.67", 
    "last": 149.84204, 
    "lowerBand": "149.83", 
    "middleBand": "152.75", 
    "date": "2014-06-16"
  }, 
  {
    "deviation": "1.52", 
    "upperBand": "155.75", 
    "last": 150.23124, 
    "lowerBand": "149.66", 
    "middleBand": "152.71", 
    "date": "2014-06-17"
  }, 
  {
    "deviation": "1.58", 
    "upperBand": "155.82", 
    "last": 150.32854, 
    "lowerBand": "149.48", 
    "middleBand": "152.65", 
    "date": "2014-06-18"
  }, 
  {
    "deviation": "1.60", 
    "upperBand": "155.82", 
    "last": 151.59344, 
    "lowerBand": "149.42", 
    "middleBand": "152.62", 
    "date": "2014-06-19"
  }, 
  {
    "deviation": "1.65", 
    "upperBand": "155.87", 
    "last": 150.42584, 
    "lowerBand": "149.27", 
    "middleBand": "152.57", 
    "date": "2014-06-23"
  }, 
  {
    "deviation": "1.66", 
    "upperBand": "155.87", 
    "last": 151.49614, 
    "lowerBand": "149.24", 
    "middleBand": "152.55", 
    "date": "2014-06-24"
  }, 
  {
    "deviation": "1.70", 
    "upperBand": "155.73", 
    "last": 149.93934, 
    "lowerBand": "148.94", 
    "middleBand": "152.34", 
    "date": "2014-06-25"
  }, 
  {
    "deviation": "1.78", 
    "upperBand": "155.62", 
    "last": 148.96634, 
    "lowerBand": "148.51", 
    "middleBand": "152.06", 
    "date": "2014-06-26"
  }, 
  {
    "deviation": "1.71", 
    "upperBand": "155.25", 
    "last": 150.23124, 
    "lowerBand": "148.42", 
    "middleBand": "151.84", 
    "date": "2014-06-27"
  }, 
  {
    "deviation": "1.67", 
    "upperBand": "154.96", 
    "last": 149.84204, 
    "lowerBand": "148.28", 
    "middleBand": "151.62", 
    "date": "2014-06-30"
  }, 
  {
    "deviation": "1.57", 
    "upperBand": "154.54", 
    "last": 150.03664, 
    "lowerBand": "148.25", 
    "middleBand": "151.40", 
    "date": "2014-07-01"
  }, 
  {
    "deviation": "1.54", 
    "upperBand": "154.28", 
    "last": 149.55014, 
    "lowerBand": "148.12", 
    "middleBand": "151.20", 
    "date": "2014-07-02"
  }, 
  {
    "deviation": "1.53", 
    "upperBand": "154.24", 
    "last": 152.56644, 
    "lowerBand": "148.13", 
    "middleBand": "151.18", 
    "date": "2014-07-03"
  }, 
  {
    "deviation": "1.56", 
    "upperBand": "154.33", 
    "last": 152.76104, 
    "lowerBand": "148.11", 
    "middleBand": "151.22", 
    "date": "2014-07-04"
  }, 
  {
    "deviation": "1.53", 
    "upperBand": "154.25", 
    "last": 152.46914, 
    "lowerBand": "148.14", 
    "middleBand": "151.19", 
    "date": "2014-07-07"
  }, 
  {
    "deviation": "1.37", 
    "upperBand": "153.83", 
    "last": 152.17724, 
    "lowerBand": "148.35", 
    "middleBand": "151.09", 
    "date": "2014-07-08"
  }, 
  {
    "deviation": "1.17", 
    "upperBand": "153.31", 
    "last": 151.88534, 
    "lowerBand": "148.62", 
    "middleBand": "150.97", 
    "date": "2014-07-09"
  }, 
  {
    "deviation": "1.14", 
    "upperBand": "153.11", 
    "last": 149.64744, 
    "lowerBand": "148.53", 
    "middleBand": "150.82", 
    "date": "2014-07-10"
  }, 
  {
    "deviation": "1.13", 
    "upperBand": "152.96", 
    "last": 149.74474, 
    "lowerBand": "148.44", 
    "middleBand": "150.70", 
    "date": "2014-07-11"
  }, 
  {
    "deviation": "1.14", 
    "upperBand": "153.05", 
    "last": 151.59344, 
    "lowerBand": "148.48", 
    "middleBand": "150.77", 
    "date": "2014-07-14"
  }, 
  {
    "deviation": "1.12", 
    "upperBand": "153.06", 
    "last": 150.81504, 
    "lowerBand": "148.57", 
    "middleBand": "150.82", 
    "date": "2014-07-15"
  }, 
  {
    "deviation": "1.15", 
    "upperBand": "153.21", 
    "last": 152.17724, 
    "lowerBand": "148.61", 
    "middleBand": "150.91", 
    "date": "2014-07-16"
  }, 
  {
    "deviation": "1.17", 
    "upperBand": "153.33", 
    "last": 151.98264, 
    "lowerBand": "148.66", 
    "middleBand": "151.00", 
    "date": "2014-07-17"
  }, 
  {
    "deviation": "1.16", 
    "upperBand": "153.28", 
    "last": 151.00964, 
    "lowerBand": "148.65", 
    "middleBand": "150.97", 
    "date": "2014-07-18"
  }, 
  {
    "deviation": "1.15", 
    "upperBand": "153.31", 
    "last": 151.20424, 
    "lowerBand": "148.70", 
    "middleBand": "151.00", 
    "date": "2014-07-21"
  }, 
  {
    "deviation": "1.51", 
    "upperBand": "154.22", 
    "last": 155.48544, 
    "lowerBand": "148.19", 
    "middleBand": "151.20", 
    "date": "2014-07-22"
  }, 
  {
    "deviation": "2.03", 
    "upperBand": "155.64", 
    "last": 157.62604, 
    "lowerBand": "147.53", 
    "middleBand": "151.59", 
    "date": "2014-07-23"
  }, 
  {
    "deviation": "2.64", 
    "upperBand": "157.42", 
    "last": 159.96124, 
    "lowerBand": "146.86", 
    "middleBand": "152.14", 
    "date": "2014-07-24"
  }, 
  {
    "deviation": "2.91", 
    "upperBand": "158.36", 
    "last": 158.20984, 
    "lowerBand": "146.72", 
    "middleBand": "152.54", 
    "date": "2014-07-25"
  }, 
  {
    "deviation": "3.19", 
    "upperBand": "159.38", 
    "last": 159.28014, 
    "lowerBand": "146.63", 
    "middleBand": "153.01", 
    "date": "2014-07-28"
  }, 
  {
    "deviation": "3.29", 
    "upperBand": "159.98", 
    "last": 158.01524, 
    "lowerBand": "146.83", 
    "middleBand": "153.41", 
    "date": "2014-07-29"
  }, 
  {
    "deviation": "3.24", 
    "upperBand": "160.25", 
    "last": 156.75034, 
    "lowerBand": "147.29", 
    "middleBand": "153.77", 
    "date": "2014-07-30"
  }, 
  {
    "deviation": "3.24", 
    "upperBand": "160.36", 
    "last": 154.90164, 
    "lowerBand": "147.41", 
    "middleBand": "153.88", 
    "date": "2014-07-31"
  }, 
  {
    "deviation": "3.24", 
    "upperBand": "160.36", 
    "last": 152.85834, 
    "lowerBand": "147.42", 
    "middleBand": "153.89", 
    "date": "2014-08-01"
  }, 
  {
    "deviation": "3.24", 
    "upperBand": "160.36", 
    "last": 152.37184, 
    "lowerBand": "147.41", 
    "middleBand": "153.88", 
    "date": "2014-08-04"
  }, 
  {
    "deviation": "3.25", 
    "upperBand": "160.36", 
    "last": 151.88534, 
    "lowerBand": "147.38", 
    "middleBand": "153.87", 
    "date": "2014-08-05"
  }, 
  {
    "deviation": "3.26", 
    "upperBand": "160.37", 
    "last": 151.59344, 
    "lowerBand": "147.35", 
    "middleBand": "153.86", 
    "date": "2014-08-06"
  }, 
  {
    "deviation": "3.24", 
    "upperBand": "160.35", 
    "last": 149.84204, 
    "lowerBand": "147.38", 
    "middleBand": "153.87", 
    "date": "2014-08-07"
  }, 
  {
    "deviation": "3.26", 
    "upperBand": "160.37", 
    "last": 149.45284, 
    "lowerBand": "147.33", 
    "middleBand": "153.85", 
    "date": "2014-08-08"
  }, 
  {
    "deviation": "3.31", 
    "upperBand": "160.41", 
    "last": 150.52314, 
    "lowerBand": "147.18", 
    "middleBand": "153.80", 
    "date": "2014-08-11"
  }, 
  {
    "deviation": "3.36", 
    "upperBand": "160.46", 
    "last": 149.84204, 
    "lowerBand": "147.03", 
    "middleBand": "153.75", 
    "date": "2014-08-12"
  }, 
  {
    "deviation": "3.41", 
    "upperBand": "160.49", 
    "last": 150.71774, 
    "lowerBand": "146.86", 
    "middleBand": "153.68", 
    "date": "2014-08-13"
  }, 
  {
    "deviation": "3.45", 
    "upperBand": "160.51", 
    "last": 150.62044, 
    "lowerBand": "146.70", 
    "middleBand": "153.61", 
    "date": "2014-08-14"
  }, 
  {
    "deviation": "3.50", 
    "upperBand": "160.56", 
    "last": 149.93934, 
    "lowerBand": "146.55", 
    "middleBand": "153.55", 
    "date": "2014-08-15"
  }, 
  {
    "deviation": "3.53", 
    "upperBand": "160.58", 
    "last": 150.42584, 
    "lowerBand": "146.45", 
    "middleBand": "153.52", 
    "date": "2014-08-18"
  }, 
  {
    "deviation": "3.52", 
    "upperBand": "160.37", 
    "last": 151.78804, 
    "lowerBand": "146.29", 
    "middleBand": "153.33", 
    "date": "2014-08-19"
  }, 
  {
    "deviation": "3.39", 
    "upperBand": "159.82", 
    "last": 151.59344, 
    "lowerBand": "146.24", 
    "middleBand": "153.03", 
    "date": "2014-08-20"
  }, 
  {
    "deviation": "3.01", 
    "upperBand": "158.73", 
    "last": 153.73404, 
    "lowerBand": "146.70", 
    "middleBand": "152.72", 
    "date": "2014-08-21"
  }, 
  {
    "deviation": "2.73", 
    "upperBand": "157.88", 
    "last": 152.17724, 
    "lowerBand": "146.95", 
    "middleBand": "152.42", 
    "date": "2014-08-22"
  }, 
  {
    "deviation": "2.29", 
    "upperBand": "156.74", 
    "last": 154.31784, 
    "lowerBand": "147.60", 
    "middleBand": "152.17", 
    "date": "2014-08-25"
  }, 
  {
    "deviation": "1.97", 
    "upperBand": "155.96", 
    "last": 154.99894, 
    "lowerBand": "148.07", 
    "middleBand": "152.02", 
    "date": "2014-08-26"
  }, 
  {
    "deviation": "1.78", 
    "upperBand": "155.47", 
    "last": 154.80434, 
    "lowerBand": "148.37", 
    "middleBand": "151.92", 
    "date": "2014-08-27"
  }, 
  {
    "deviation": "1.74", 
    "upperBand": "155.37", 
    "last": 154.41514, 
    "lowerBand": "148.42", 
    "middleBand": "151.90", 
    "date": "2014-08-28"
  }, 
  {
    "deviation": "1.79", 
    "upperBand": "155.53", 
    "last": 154.02594, 
    "lowerBand": "148.38", 
    "middleBand": "151.95", 
    "date": "2014-08-29"
  }, 
  {
    "deviation": "1.92", 
    "upperBand": "155.94", 
    "last": 155.19354, 
    "lowerBand": "148.25", 
    "middleBand": "152.09", 
    "date": "2014-09-01"
  }, 
  {
    "deviation": "2.11", 
    "upperBand": "156.52", 
    "last": 156.06924, 
    "lowerBand": "148.09", 
    "middleBand": "152.30", 
    "date": "2014-09-02"
  }, 
  {
    "deviation": "2.58", 
    "upperBand": "157.83", 
    "last": 159.18284, 
    "lowerBand": "147.53", 
    "middleBand": "152.68", 
    "date": "2014-09-03"
  }, 
  {
    "deviation": "2.84", 
    "upperBand": "158.83", 
    "last": 159.08554, 
    "lowerBand": "147.47", 
    "middleBand": "153.15", 
    "date": "2014-09-04"
  }, 
  {
    "deviation": "2.94", 
    "upperBand": "159.47", 
    "last": 158.50174, 
    "lowerBand": "147.73", 
    "middleBand": "153.60", 
    "date": "2014-09-05"
  }, 
  {
    "deviation": "3.05", 
    "upperBand": "160.12", 
    "last": 158.79364, 
    "lowerBand": "147.91", 
    "middleBand": "154.01", 
    "date": "2014-09-08"
  }, 
  {
    "deviation": "3.13", 
    "upperBand": "160.77", 
    "last": 159.66934, 
    "lowerBand": "148.24", 
    "middleBand": "154.50", 
    "date": "2014-09-09"
  }, 
  {
    "deviation": "3.08", 
    "upperBand": "161.01", 
    "last": 157.72334, 
    "lowerBand": "148.69", 
    "middleBand": "154.85", 
    "date": "2014-09-10"
  }, 
  {
    "deviation": "2.98", 
    "upperBand": "161.18", 
    "last": 157.82064, 
    "lowerBand": "149.24", 
    "middleBand": "155.21", 
    "date": "2014-09-11"
  }, 
  {
    "deviation": "2.82", 
    "upperBand": "161.28", 
    "last": 158.69634, 
    "lowerBand": "150.02", 
    "middleBand": "155.65", 
    "date": "2014-09-12"
  }, 
  {
    "deviation": "2.59", 
    "upperBand": "161.21", 
    "last": 158.01524, 
    "lowerBand": "150.85", 
    "middleBand": "156.03", 
    "date": "2014-09-15"
  }, 
  {
    "deviation": "2.48", 
    "upperBand": "161.36", 
    "last": 159.18284, 
    "lowerBand": "151.44", 
    "middleBand": "156.40", 
    "date": "2014-09-16"
  }, 
  {
    "deviation": "2.30", 
    "upperBand": "161.39", 
    "last": 159.37744, 
    "lowerBand": "152.19", 
    "middleBand": "156.79", 
    "date": "2014-09-17"
  }, 
  {
    "deviation": "2.26", 
    "upperBand": "161.60", 
    "last": 159.47474, 
    "lowerBand": "152.56", 
    "middleBand": "157.08", 
    "date": "2014-09-18"
  }, 
  {
    "deviation": "2.04", 
    "upperBand": "161.55", 
    "last": 159.96124, 
    "lowerBand": "153.38", 
    "middleBand": "157.47", 
    "date": "2014-09-19"
  }, 
  {
    "deviation": "1.96", 
    "upperBand": "161.66", 
    "last": 159.66934, 
    "lowerBand": "153.81", 
    "middleBand": "157.73", 
    "date": "2014-09-22"
  }, 
  {
    "deviation": "1.91", 
    "upperBand": "161.79", 
    "last": 159.86394, 
    "lowerBand": "154.16", 
    "middleBand": "157.98", 
    "date": "2014-09-23"
  }, 
  {
    "deviation": "1.78", 
    "upperBand": "161.75", 
    "last": 159.18284, 
    "lowerBand": "154.64", 
    "middleBand": "158.20", 
    "date": "2014-09-24"
  }, 
  {
    "deviation": "1.55", 
    "upperBand": "161.52", 
    "last": 158.69634, 
    "lowerBand": "155.30", 
    "middleBand": "158.41", 
    "date": "2014-09-25"
  }, 
  {
    "deviation": "1.20", 
    "upperBand": "161.09", 
    "last": 159.57204, 
    "lowerBand": "156.28", 
    "middleBand": "158.69", 
    "date": "2014-09-26"
  }, 
  {
    "deviation": "0.90", 
    "upperBand": "160.68", 
    "last": 159.08554, 
    "lowerBand": "157.08", 
    "middleBand": "158.88", 
    "date": "2014-09-29"
  }, 
  {
    "deviation": "0.67", 
    "upperBand": "160.32", 
    "last": 157.91794, 
    "lowerBand": "157.63", 
    "middleBand": "158.97", 
    "date": "2014-09-30"
  }, 
  {
    "deviation": "0.90", 
    "upperBand": "160.63", 
    "last": 156.16654, 
    "lowerBand": "157.01", 
    "middleBand": "158.82", 
    "date": "2014-10-01"
  }, 
  {
    "deviation": "1.62", 
    "upperBand": "161.73", 
    "last": 152.66374, 
    "lowerBand": "155.27", 
    "middleBand": "158.50", 
    "date": "2014-10-02"
  }, 
  {
    "deviation": "2.00", 
    "upperBand": "162.24", 
    "last": 153.05294, 
    "lowerBand": "154.22", 
    "middleBand": "158.23", 
    "date": "2014-10-03"
  }, 
  {
    "deviation": "2.23", 
    "upperBand": "162.44", 
    "last": 153.63674, 
    "lowerBand": "153.50", 
    "middleBand": "157.97", 
    "date": "2014-10-06"
  }, 
  {
    "deviation": "2.61", 
    "upperBand": "162.79", 
    "last": 151.39884, 
    "lowerBand": "152.33", 
    "middleBand": "157.56", 
    "date": "2014-10-07"
  }, 
  {
    "deviation": "3.19", 
    "upperBand": "163.51", 
    "last": 149.16094, 
    "lowerBand": "150.75", 
    "middleBand": "157.13", 
    "date": "2014-10-08"
  }, 
  {
    "deviation": "3.73", 
    "upperBand": "164.11", 
    "last": 148.18794, 
    "lowerBand": "149.19", 
    "middleBand": "156.65", 
    "date": "2014-10-09"
  }, 
  {
    "deviation": "4.58", 
    "upperBand": "165.07", 
    "last": 144.19864, 
    "lowerBand": "146.77", 
    "middleBand": "155.92", 
    "date": "2014-10-10"
  }, 
  {
    "deviation": "5.25", 
    "upperBand": "165.71", 
    "last": 143.80944, 
    "lowerBand": "144.72", 
    "middleBand": "155.21", 
    "date": "2014-10-13"
  }, 
  {
    "deviation": "5.53", 
    "upperBand": "165.62", 
    "last": 145.95004, 
    "lowerBand": "143.49", 
    "middleBand": "154.55", 
    "date": "2014-10-14"
  }, 
  {
    "deviation": "6.07", 
    "upperBand": "165.81", 
    "last": 141.76614, 
    "lowerBand": "141.53", 
    "middleBand": "153.67", 
    "date": "2014-10-15"
  }, 
  {
    "deviation": "6.42", 
    "upperBand": "165.64", 
    "last": 141.96074, 
    "lowerBand": "139.95", 
    "middleBand": "152.80", 
    "date": "2014-10-16"
  }, 
  {
    "deviation": "6.49", 
    "upperBand": "164.96", 
    "last": 143.80944, 
    "lowerBand": "139.02", 
    "middleBand": "151.99", 
    "date": "2014-10-17"
  }, 
  {
    "deviation": "6.47", 
    "upperBand": "164.14", 
    "last": 143.71214, 
    "lowerBand": "138.24", 
    "middleBand": "151.19", 
    "date": "2014-10-20"
  }, 
  {
    "deviation": "6.23", 
    "upperBand": "162.98", 
    "last": 146.53384, 
    "lowerBand": "138.07", 
    "middleBand": "150.52", 
    "date": "2014-10-21"
  }, 
  {
    "deviation": "5.90", 
    "upperBand": "161.90", 
    "last": 150.52314, 
    "lowerBand": "138.28", 
    "middleBand": "150.09", 
    "date": "2014-10-22"
  }, 
  {
    "deviation": "5.58", 
    "upperBand": "160.89", 
    "last": 151.59344, 
    "lowerBand": "138.58", 
    "middleBand": "149.74", 
    "date": "2014-10-23"
  }, 
  {
    "deviation": "5.11", 
    "upperBand": "159.49", 
    "last": 150.32854, 
    "lowerBand": "139.06", 
    "middleBand": "149.27", 
    "date": "2014-10-24"
  }, 
  {
    "deviation": "4.61", 
    "upperBand": "158.07", 
    "last": 150.81504, 
    "lowerBand": "139.64", 
    "middleBand": "148.86", 
    "date": "2014-10-27"
  }, 
  {
    "deviation": "4.32", 
    "upperBand": "157.32", 
    "last": 154.41514, 
    "lowerBand": "140.05", 
    "middleBand": "148.68", 
    "date": "2014-10-28"
  }, 
  {
    "deviation": "4.17", 
    "upperBand": "156.94", 
    "last": 154.31784, 
    "lowerBand": "140.25", 
    "middleBand": "148.59", 
    "date": "2014-10-29"
  }, 
  {
    "deviation": "4.30", 
    "upperBand": "157.30", 
    "last": 154.80434, 
    "lowerBand": "140.10", 
    "middleBand": "148.70", 
    "date": "2014-10-30"
  }, 
  {
    "deviation": "4.67", 
    "upperBand": "158.29", 
    "last": 158.01524, 
    "lowerBand": "139.60", 
    "middleBand": "148.95", 
    "date": "2014-10-31"
  }, 
  {
    "deviation": "4.84", 
    "upperBand": "158.77", 
    "last": 156.36114, 
    "lowerBand": "139.39", 
    "middleBand": "149.08", 
    "date": "2014-11-03"
  }, 
  {
    "deviation": "5.06", 
    "upperBand": "159.43", 
    "last": 156.06924, 
    "lowerBand": "139.20", 
    "middleBand": "149.32", 
    "date": "2014-11-04"
  }, 
  {
    "deviation": "5.46", 
    "upperBand": "160.72", 
    "last": 158.79364, 
    "lowerBand": "138.87", 
    "middleBand": "149.80", 
    "date": "2014-11-05"
  }, 
  {
    "deviation": "5.88", 
    "upperBand": "162.16", 
    "last": 160.05854, 
    "lowerBand": "138.62", 
    "middleBand": "150.39", 
    "date": "2014-11-06"
  }, 
  {
    "deviation": "6.05", 
    "upperBand": "163.29", 
    "last": 159.96124, 
    "lowerBand": "139.07", 
    "middleBand": "151.18", 
    "date": "2014-11-07"
  }, 
  {
    "deviation": "6.21", 
    "upperBand": "164.48", 
    "last": 161.51804, 
    "lowerBand": "139.65", 
    "middleBand": "152.07", 
    "date": "2014-11-10"
  }, 
  {
    "deviation": "6.36", 
    "upperBand": "165.55", 
    "last": 161.42074, 
    "lowerBand": "140.12", 
    "middleBand": "152.84", 
    "date": "2014-11-11"
  }, 
  {
    "deviation": "6.03", 
    "upperBand": "165.84", 
    "last": 160.54504, 
    "lowerBand": "141.72", 
    "middleBand": "153.78", 
    "date": "2014-11-12"
  }, 
  {
    "deviation": "5.66", 
    "upperBand": "166.11", 
    "last": 162.29644, 
    "lowerBand": "143.48", 
    "middleBand": "154.79", 
    "date": "2014-11-13"
  }, 
  {
    "deviation": "5.20", 
    "upperBand": "166.03", 
    "last": 160.73964, 
    "lowerBand": "145.25", 
    "middleBand": "155.64", 
    "date": "2014-11-14"
  }, 
  {
    "deviation": "4.55", 
    "upperBand": "165.63", 
    "last": 161.32344, 
    "lowerBand": "147.42", 
    "middleBand": "156.52", 
    "date": "2014-11-17"
  }, 
  {
    "deviation": "4.10", 
    "upperBand": "165.50", 
    "last": 162.29644, 
    "lowerBand": "149.12", 
    "middleBand": "157.31", 
    "date": "2014-11-18"
  }, 
  {
    "deviation": "3.93", 
    "upperBand": "165.76", 
    "last": 162.39374, 
    "lowerBand": "150.05", 
    "middleBand": "157.90", 
    "date": "2014-11-19"
  }, 
  {
    "deviation": "3.76", 
    "upperBand": "165.97", 
    "last": 162.39374, 
    "lowerBand": "150.92", 
    "middleBand": "158.44", 
    "date": "2014-11-20"
  }, 
  {
    "deviation": "3.57", 
    "upperBand": "166.33", 
    "last": 165.41004, 
    "lowerBand": "152.07", 
    "middleBand": "159.20", 
    "date": "2014-11-21"
  }, 
  {
    "deviation": "3.30", 
    "upperBand": "166.55", 
    "last": 165.89654, 
    "lowerBand": "153.36", 
    "middleBand": "159.95", 
    "date": "2014-11-24"
  }, 
  {
    "deviation": "3.29", 
    "upperBand": "167.11", 
    "last": 165.99384, 
    "lowerBand": "153.95", 
    "middleBand": "160.53", 
    "date": "2014-11-25"
  }, 
  {
    "deviation": "3.10", 
    "upperBand": "167.25", 
    "last": 164.92354, 
    "lowerBand": "154.87", 
    "middleBand": "161.06", 
    "date": "2014-11-26"
  }, 
  {
    "deviation": "2.86", 
    "upperBand": "167.28", 
    "last": 165.02084, 
    "lowerBand": "155.86", 
    "middleBand": "161.57", 
    "date": "2014-11-27"
  }, 
  {
    "deviation": "2.75", 
    "upperBand": "167.32", 
    "last": 162.97754, 
    "lowerBand": "156.32", 
    "middleBand": "161.82", 
    "date": "2014-11-28"
  }, 
  {
    "deviation": "2.53", 
    "upperBand": "167.02", 
    "last": 159.08554, 
    "lowerBand": "156.89", 
    "middleBand": "161.96", 
    "date": "2014-12-01"
  }, 
  {
    "deviation": "2.21", 
    "upperBand": "166.56", 
    "last": 159.86394, 
    "lowerBand": "157.73", 
    "middleBand": "162.15", 
    "date": "2014-12-02"
  }, 
  {
    "deviation": "2.09", 
    "upperBand": "166.44", 
    "last": 160.83694, 
    "lowerBand": "158.06", 
    "middleBand": "162.25", 
    "date": "2014-12-03"
  }, 
  {
    "deviation": "2.10", 
    "upperBand": "166.44", 
    "last": 159.96124, 
    "lowerBand": "158.04", 
    "middleBand": "162.24", 
    "date": "2014-12-04"
  }, 
  {
    "deviation": "2.09", 
    "upperBand": "166.44", 
    "last": 160.05854, 
    "lowerBand": "158.06", 
    "middleBand": "162.25", 
    "date": "2014-12-05"
  }, 
  {
    "deviation": "2.17", 
    "upperBand": "166.49", 
    "last": 159.57204, 
    "lowerBand": "157.81", 
    "middleBand": "162.15", 
    "date": "2014-12-08"
  }, 
  {
    "deviation": "2.38", 
    "upperBand": "166.72", 
    "last": 157.62604, 
    "lowerBand": "157.20", 
    "middleBand": "161.96", 
    "date": "2014-12-09"
  }, 
  {
    "deviation": "2.71", 
    "upperBand": "167.16", 
    "last": 155.87464, 
    "lowerBand": "156.30", 
    "middleBand": "161.73", 
    "date": "2014-12-10"
  }, 
  {
    "deviation": "2.98", 
    "upperBand": "167.38", 
    "last": 155.97194, 
    "lowerBand": "155.44", 
    "middleBand": "161.41", 
    "date": "2014-12-11"
  }, 
  {
    "deviation": "3.49", 
    "upperBand": "168.00", 
    "last": 153.15024, 
    "lowerBand": "154.06", 
    "middleBand": "161.03", 
    "date": "2014-12-12"
  }, 
  {
    "deviation": "3.95", 
    "upperBand": "168.49", 
    "last": 152.46914, 
    "lowerBand": "152.69", 
    "middleBand": "160.59", 
    "date": "2014-12-15"
  }, 
  {
    "deviation": "4.08", 
    "upperBand": "168.40", 
    "last": 155.58274, 
    "lowerBand": "152.10", 
    "middleBand": "160.25", 
    "date": "2014-12-16"
  }, 
  {
    "deviation": "4.18", 
    "upperBand": "168.26", 
    "last": 155.38814, 
    "lowerBand": "151.55", 
    "middleBand": "159.90", 
    "date": "2014-12-17"
  }, 
  {
    "deviation": "4.16", 
    "upperBand": "167.99", 
    "last": 157.72334, 
    "lowerBand": "151.35", 
    "middleBand": "159.67", 
    "date": "2014-12-18"
  }, 
  {
    "deviation": "3.95", 
    "upperBand": "167.32", 
    "last": 160.35044, 
    "lowerBand": "151.51", 
    "middleBand": "159.42", 
    "date": "2014-12-19"
  }, 
  {
    "deviation": "3.72", 
    "upperBand": "166.66", 
    "last": 162.00454, 
    "lowerBand": "151.79", 
    "middleBand": "159.22", 
    "date": "2014-12-22"
  }, 
  {
    "deviation": "3.49", 
    "upperBand": "166.05", 
    "last": 162.88024, 
    "lowerBand": "152.09", 
    "middleBand": "159.07", 
    "date": "2014-12-23"
  }, 
  {
    "deviation": "3.47", 
    "upperBand": "165.98", 
    "last": 164.63164, 
    "lowerBand": "152.12", 
    "middleBand": "159.05", 
    "date": "2014-12-29"
  }, 
  {
    "deviation": "3.24", 
    "upperBand": "165.34", 
    "last": 161.42074, 
    "lowerBand": "152.40", 
    "middleBand": "158.87", 
    "date": "2014-12-30"
  }, 
  {
    "deviation": "3.16", 
    "upperBand": "165.12", 
    "last": 161.51804, 
    "lowerBand": "152.48", 
    "middleBand": "158.80", 
    "date": "2015-01-02"
  }, 
  {
    "deviation": "3.17", 
    "upperBand": "165.18", 
    "last": 159.96124, 
    "lowerBand": "152.51", 
    "middleBand": "158.84", 
    "date": "2015-01-05"
  }, 
  {
    "deviation": "3.28", 
    "upperBand": "165.14", 
    "last": 154.80434, 
    "lowerBand": "152.04", 
    "middleBand": "158.59", 
    "date": "2015-01-07"
  }, 
  {
    "deviation": "3.24", 
    "upperBand": "164.95", 
    "last": 158.59904, 
    "lowerBand": "152.00", 
    "middleBand": "158.48", 
    "date": "2015-01-08"
  }, 
  {
    "deviation": "3.25", 
    "upperBand": "164.80", 
    "last": 156.26384, 
    "lowerBand": "151.79", 
    "middleBand": "158.29", 
    "date": "2015-01-09"
  }, 
  {
    "deviation": "3.24", 
    "upperBand": "164.61", 
    "last": 156.75034, 
    "lowerBand": "151.64", 
    "middleBand": "158.13", 
    "date": "2015-01-12"
  }, 
  {
    "deviation": "3.27", 
    "upperBand": "164.46", 
    "last": 155.68004, 
    "lowerBand": "151.40", 
    "middleBand": "157.93", 
    "date": "2015-01-13"
  }, 
  {
    "deviation": "3.56", 
    "upperBand": "164.75", 
    "last": 151.39884, 
    "lowerBand": "150.49", 
    "middleBand": "157.62", 
    "date": "2015-01-14"
  }, 
  {
    "deviation": "3.54", 
    "upperBand": "164.78", 
    "last": 157.43144, 
    "lowerBand": "150.62", 
    "middleBand": "157.70", 
    "date": "2015-01-15"
  }, 
  {
    "deviation": "3.54", 
    "upperBand": "164.78", 
    "last": 155.97194, 
    "lowerBand": "150.62", 
    "middleBand": "157.70", 
    "date": "2015-01-16"
  }, 
  {
    "deviation": "3.43", 
    "upperBand": "164.67", 
    "last": 155.29084, 
    "lowerBand": "150.94", 
    "middleBand": "157.81", 
    "date": "2015-01-19"
  }, 
  {
    "deviation": "3.25", 
    "upperBand": "164.47", 
    "last": 155.58274, 
    "lowerBand": "151.45", 
    "middleBand": "157.96", 
    "date": "2015-01-20"
  }, 
  {
    "deviation": "3.21", 
    "upperBand": "164.48", 
    "last": 157.43144, 
    "lowerBand": "151.63", 
    "middleBand": "158.05", 
    "date": "2015-01-21"
  }, 
  {
    "deviation": "3.16", 
    "upperBand": "164.57", 
    "last": 159.28014, 
    "lowerBand": "151.93", 
    "middleBand": "158.25", 
    "date": "2015-01-22"
  }, 
  {
    "deviation": "3.19", 
    "upperBand": "164.76", 
    "last": 160.35044, 
    "lowerBand": "152.00", 
    "middleBand": "158.38", 
    "date": "2015-01-23"
  }, 
  {
    "deviation": "3.18", 
    "upperBand": "164.73", 
    "last": 160.05854, 
    "lowerBand": "152.00", 
    "middleBand": "158.37", 
    "date": "2015-01-26"
  }, 
  {
    "deviation": "3.09", 
    "upperBand": "164.27", 
    "last": 156.55574, 
    "lowerBand": "151.91", 
    "middleBand": "158.09", 
    "date": "2015-01-27"
  }, 
  {
    "deviation": "2.89", 
    "upperBand": "163.59", 
    "last": 157.13954, 
    "lowerBand": "152.02", 
    "middleBand": "157.81", 
    "date": "2015-01-28"
  }, 
  {
    "deviation": "2.51", 
    "upperBand": "162.32", 
    "last": 154.70704, 
    "lowerBand": "152.30", 
    "middleBand": "157.31", 
    "date": "2015-01-29"
  }, 
  {
    "deviation": "2.39", 
    "upperBand": "161.74", 
    "last": 154.51244, 
    "lowerBand": "152.19", 
    "middleBand": "156.96", 
    "date": "2015-01-30"
  }, 
  {
    "deviation": "2.15", 
    "upperBand": "161.00", 
    "last": 156.26384, 
    "lowerBand": "152.40", 
    "middleBand": "156.70", 
    "date": "2015-02-02"
  }, 
  {
    "deviation": "2.08", 
    "upperBand": "160.79", 
    "last": 158.79364, 
    "lowerBand": "152.49", 
    "middleBand": "156.64", 
    "date": "2015-02-03"
  }, 
  {
    "deviation": "2.18", 
    "upperBand": "161.28", 
    "last": 160.35044, 
    "lowerBand": "152.56", 
    "middleBand": "156.92", 
    "date": "2015-02-04"
  }, 
  {
    "deviation": "2.51", 
    "upperBand": "162.14", 
    "last": 162.78294, 
    "lowerBand": "152.12", 
    "middleBand": "157.13", 
    "date": "2015-02-05"
  }, 
  {
    "deviation": "3.23", 
    "upperBand": "164.11", 
    "last": 166.57764, 
    "lowerBand": "151.18", 
    "middleBand": "157.65", 
    "date": "2015-02-06"
  }, 
  {
    "deviation": "3.89", 
    "upperBand": "165.96", 
    "last": 167.64794, 
    "lowerBand": "150.42", 
    "middleBand": "158.19", 
    "date": "2015-02-09"
  }, 
  {
    "deviation": "4.37", 
    "upperBand": "167.53", 
    "last": 167.84254, 
    "lowerBand": "150.06", 
    "middleBand": "158.80", 
    "date": "2015-02-10"
  }, 
  {
    "deviation": "4.56", 
    "upperBand": "168.80", 
    "last": 169.01014, 
    "lowerBand": "150.56", 
    "middleBand": "159.68", 
    "date": "2015-02-11"
  }, 
  {
    "deviation": "5.32", 
    "upperBand": "171.08", 
    "last": 172.61024, 
    "lowerBand": "149.80", 
    "middleBand": "160.44", 
    "date": "2015-02-12"
  }, 
  {
    "deviation": "6.06", 
    "upperBand": "173.49", 
    "last": 174.75084, 
    "lowerBand": "149.26", 
    "middleBand": "161.38", 
    "date": "2015-02-13"
  }, 
  {
    "deviation": "6.59", 
    "upperBand": "175.56", 
    "last": 175.23734, 
    "lowerBand": "149.19", 
    "middleBand": "162.37", 
    "date": "2015-02-16"
  }, 
  {
    "deviation": "6.72", 
    "upperBand": "176.65", 
    "last": 172.12374, 
    "lowerBand": "149.76", 
    "middleBand": "163.20", 
    "date": "2015-02-17"
  }, 
  {
    "deviation": "7.02", 
    "upperBand": "178.11", 
    "last": 174.65354, 
    "lowerBand": "150.01", 
    "middleBand": "164.06", 
    "date": "2015-02-18"
  }, 
  {
    "deviation": "7.28", 
    "upperBand": "179.37", 
    "last": 174.36164, 
    "lowerBand": "150.26", 
    "middleBand": "164.82", 
    "date": "2015-02-19"
  }, 
  {
    "deviation": "7.52", 
    "upperBand": "180.58", 
    "last": 174.94544, 
    "lowerBand": "150.51", 
    "middleBand": "165.55", 
    "date": "2015-02-20"
  }, 
  {
    "deviation": "7.72", 
    "upperBand": "181.77", 
    "last": 175.72384, 
    "lowerBand": "150.89", 
    "middleBand": "166.33", 
    "date": "2015-02-23"
  }, 
  {
    "deviation": "7.63", 
    "upperBand": "182.53", 
    "last": 175.52924, 
    "lowerBand": "152.03", 
    "middleBand": "167.28", 
    "date": "2015-02-24"
  }, 
  {
    "deviation": "7.35", 
    "upperBand": "182.78", 
    "last": 173.09674, 
    "lowerBand": "153.37", 
    "middleBand": "168.08", 
    "date": "2015-02-25"
  }, 
  {
    "deviation": "6.81", 
    "upperBand": "182.70", 
    "last": 174.75084, 
    "lowerBand": "155.46", 
    "middleBand": "169.08", 
    "date": "2015-02-26"
  }, 
  {
    "deviation": "6.03", 
    "upperBand": "182.16", 
    "last": 174.84814, 
    "lowerBand": "158.03", 
    "middleBand": "170.10", 
    "date": "2015-02-27"
  }, 
  {
    "deviation": "5.19", 
    "upperBand": "181.37", 
    "last": 174.36164, 
    "lowerBand": "160.63", 
    "middleBand": "171.00", 
    "date": "2015-03-02"
  }, 
  {
    "deviation": "4.37", 
    "upperBand": "180.33", 
    "last": 170.56694, 
    "lowerBand": "162.84", 
    "middleBand": "171.59", 
    "date": "2015-03-03"
  }, 
  {
    "deviation": "3.54", 
    "upperBand": "179.21", 
    "last": 171.34534, 
    "lowerBand": "165.07", 
    "middleBand": "172.14", 
    "date": "2015-03-04"
  }, 
  {
    "deviation": "2.82", 
    "upperBand": "178.22", 
    "last": 171.34534, 
    "lowerBand": "166.92", 
    "middleBand": "172.57", 
    "date": "2015-03-05"
  }, 
  {
    "deviation": "2.47", 
    "upperBand": "177.80", 
    "last": 172.51294, 
    "lowerBand": "167.92", 
    "middleBand": "172.86", 
    "date": "2015-03-06"
  }, 
  {
    "deviation": "2.21", 
    "upperBand": "177.45", 
    "last": 170.95614, 
    "lowerBand": "168.61", 
    "middleBand": "173.03", 
    "date": "2015-03-09"
  }, 
  {
    "deviation": "2.10", 
    "upperBand": "177.27", 
    "last": 168.91284, 
    "lowerBand": "168.89", 
    "middleBand": "173.08", 
    "date": "2015-03-10"
  }, 
  {
    "deviation": "2.01", 
    "upperBand": "177.15", 
    "last": 169.98314, 
    "lowerBand": "169.11", 
    "middleBand": "173.13", 
    "date": "2015-03-11"
  }, 
  {
    "deviation": "2.25", 
    "upperBand": "177.42", 
    "last": 168.52364, 
    "lowerBand": "168.43", 
    "middleBand": "172.93", 
    "date": "2015-03-12"
  }, 
  {
    "deviation": "2.32", 
    "upperBand": "177.30", 
    "last": 169.59394, 
    "lowerBand": "168.03", 
    "middleBand": "172.67", 
    "date": "2015-03-13"
  }, 
  {
    "deviation": "2.26", 
    "upperBand": "176.99", 
    "last": 171.24804, 
    "lowerBand": "167.95", 
    "middleBand": "172.47", 
    "date": "2015-03-16"
  }, 
  {
    "deviation": "2.27", 
    "upperBand": "176.97", 
    "last": 171.44264, 
    "lowerBand": "167.90", 
    "middleBand": "172.44", 
    "date": "2015-03-17"
  }, 
  {
    "deviation": "2.38", 
    "upperBand": "177.27", 
    "last": 176.30764, 
    "lowerBand": "167.77", 
    "middleBand": "172.52", 
    "date": "2015-03-18"
  }, 
  {
    "deviation": "2.49", 
    "upperBand": "177.59", 
    "last": 176.30764, 
    "lowerBand": "167.64", 
    "middleBand": "172.62", 
    "date": "2015-03-19"
  }, 
  {
    "deviation": "2.89", 
    "upperBand": "178.64", 
    "last": 179.71315, 
    "lowerBand": "167.07", 
    "middleBand": "172.85", 
    "date": "2015-03-20"
  }, 
  {
    "deviation": "3.09", 
    "upperBand": "179.18", 
    "last": 178.54555, 
    "lowerBand": "166.81", 
    "middleBand": "172.99", 
    "date": "2015-03-23"
  }, 
  {
    "deviation": "3.40", 
    "upperBand": "180.02", 
    "last": 179.90775, 
    "lowerBand": "166.41", 
    "middleBand": "173.21", 
    "date": "2015-03-24"
  }, 
  {
    "deviation": "3.58", 
    "upperBand": "180.62", 
    "last": 178.25364, 
    "lowerBand": "166.32", 
    "middleBand": "173.47", 
    "date": "2015-03-25"
  }, 
  {
    "deviation": "3.68", 
    "upperBand": "180.97", 
    "last": 177.57254, 
    "lowerBand": "166.26", 
    "middleBand": "173.61", 
    "date": "2015-03-26"
  }, 
  {
    "deviation": "3.76", 
    "upperBand": "181.27", 
    "last": 177.47524, 
    "lowerBand": "166.21", 
    "middleBand": "173.74", 
    "date": "2015-03-27"
  }, 
  {
    "deviation": "4.00", 
    "upperBand": "182.03", 
    "last": 180.00505, 
    "lowerBand": "166.02", 
    "middleBand": "174.03", 
    "date": "2015-03-30"
  }, 
  {
    "deviation": "4.02", 
    "upperBand": "182.44", 
    "last": 178.15634, 
    "lowerBand": "166.37", 
    "middleBand": "174.41", 
    "date": "2015-03-31"
  }, 
  {
    "deviation": "4.14", 
    "upperBand": "183.12", 
    "last": 180.10235, 
    "lowerBand": "166.57", 
    "middleBand": "174.84", 
    "date": "2015-04-01"
  }, 
  {
    "deviation": "4.22", 
    "upperBand": "183.73", 
    "last": 180.29695, 
    "lowerBand": "166.86", 
    "middleBand": "175.29", 
    "date": "2015-04-02"
  }, 
  {
    "deviation": "4.46", 
    "upperBand": "184.72", 
    "last": 182.72945, 
    "lowerBand": "166.88", 
    "middleBand": "175.80", 
    "date": "2015-04-07"
  }, 
  {
    "deviation": "4.48", 
    "upperBand": "185.30", 
    "last": 181.56185, 
    "lowerBand": "167.36", 
    "middleBand": "176.33", 
    "date": "2015-04-08"
  }, 
  {
    "deviation": "4.39", 
    "upperBand": "185.83", 
    "last": 183.31325, 
    "lowerBand": "168.27", 
    "middleBand": "177.05", 
    "date": "2015-04-09"
  }, 
  {
    "deviation": "4.35", 
    "upperBand": "186.46", 
    "last": 184.28625, 
    "lowerBand": "169.08", 
    "middleBand": "177.77", 
    "date": "2015-04-10"
  }, 
  {
    "deviation": "4.08", 
    "upperBand": "186.76", 
    "last": 185.16195, 
    "lowerBand": "170.44", 
    "middleBand": "178.60", 
    "date": "2015-04-13"
  }, 
  {
    "deviation": "3.80", 
    "upperBand": "187.00", 
    "last": 185.64845, 
    "lowerBand": "171.80", 
    "middleBand": "179.40", 
    "date": "2015-04-14"
  }, 
  {
    "deviation": "3.71", 
    "upperBand": "187.62", 
    "last": 187.49715, 
    "lowerBand": "172.80", 
    "middleBand": "180.21", 
    "date": "2015-04-15"
  }, 
  {
    "deviation": "3.21", 
    "upperBand": "187.29", 
    "last": 184.38355, 
    "lowerBand": "174.43", 
    "middleBand": "180.86", 
    "date": "2015-04-16"
  }, 
  {
    "deviation": "3.07", 
    "upperBand": "187.33", 
    "last": 183.02135, 
    "lowerBand": "175.06", 
    "middleBand": "181.20", 
    "date": "2015-04-17"
  }, 
  {
    "deviation": "3.00", 
    "upperBand": "187.66", 
    "last": 185.64845, 
    "lowerBand": "175.67", 
    "middleBand": "181.66", 
    "date": "2015-04-20"
  }, 
  {
    "deviation": "3.13", 
    "upperBand": "188.27", 
    "last": 186.42685, 
    "lowerBand": "175.73", 
    "middleBand": "182.00", 
    "date": "2015-04-21"
  }, 
  {
    "deviation": "3.13", 
    "upperBand": "188.61", 
    "last": 185.64845, 
    "lowerBand": "176.10", 
    "middleBand": "182.35", 
    "date": "2015-04-22"
  }, 
  {
    "deviation": "3.08", 
    "upperBand": "188.68", 
    "last": 183.21595, 
    "lowerBand": "176.36", 
    "middleBand": "182.52", 
    "date": "2015-04-23"
  }, 
  {
    "deviation": "2.92", 
    "upperBand": "188.56", 
    "last": 182.04835, 
    "lowerBand": "176.86", 
    "middleBand": "182.71", 
    "date": "2015-04-24"
  }, 
  {
    "deviation": "2.71", 
    "upperBand": "188.50", 
    "last": 184.96735, 
    "lowerBand": "177.66", 
    "middleBand": "183.08", 
    "date": "2015-04-27"
  }, 
  {
    "deviation": "2.39", 
    "upperBand": "188.14", 
    "last": 183.21595, 
    "lowerBand": "178.60", 
    "middleBand": "183.37", 
    "date": "2015-04-28"
  }, 
  {
    "deviation": "2.35", 
    "upperBand": "188.10", 
    "last": 180.49155, 
    "lowerBand": "178.68", 
    "middleBand": "183.39", 
    "date": "2015-04-29"
  }, 
  {
    "deviation": "2.68", 
    "upperBand": "188.62", 
    "last": 175.62654, 
    "lowerBand": "177.91", 
    "middleBand": "183.26", 
    "date": "2015-04-30"
  }, 
  {
    "deviation": "2.79", 
    "upperBand": "188.76", 
    "last": 178.54555, 
    "lowerBand": "177.61", 
    "middleBand": "183.19", 
    "date": "2015-05-04"
  }, 
  {
    "deviation": "2.84", 
    "upperBand": "188.82", 
    "last": 179.4, 
    "lowerBand": "177.46", 
    "middleBand": "183.14", 
    "date": "2015-05-05"
  }, 
  {
    "deviation": "3.09", 
    "upperBand": "189.06", 
    "last": 177.6, 
    "lowerBand": "176.71", 
    "middleBand": "182.89", 
    "date": "2015-05-06"
  }, 
  {
    "deviation": "3.29", 
    "upperBand": "189.27", 
    "last": 177.5, 
    "lowerBand": "176.09", 
    "middleBand": "182.68", 
    "date": "2015-05-07"
  }, 
  {
    "deviation": "3.32", 
    "upperBand": "189.19", 
    "last": 180.7, 
    "lowerBand": "175.91", 
    "middleBand": "182.55", 
    "date": "2015-05-08"
  }, 
  {
    "deviation": "3.30", 
    "upperBand": "189.02", 
    "last": 181.8, 
    "lowerBand": "175.83", 
    "middleBand": "182.43", 
    "date": "2015-05-11"
  }, 
  {
    "deviation": "3.24", 
    "upperBand": "188.73", 
    "last": 181.4, 
    "lowerBand": "175.75", 
    "middleBand": "182.24", 
    "date": "2015-05-12"
  }, 
  {
    "deviation": "3.15", 
    "upperBand": "188.35", 
    "last": 182, 
    "lowerBand": "175.76", 
    "middleBand": "182.06", 
    "date": "2015-05-13"
  }, 
  {
    "deviation": "2.90", 
    "upperBand": "187.61", 
    "last": 182.7, 
    "lowerBand": "176.02", 
    "middleBand": "181.82", 
    "date": "2015-05-15"
  }, 
  {
    "deviation": "2.85", 
    "upperBand": "187.44", 
    "last": 182.9, 
    "lowerBand": "176.05", 
    "middleBand": "181.74", 
    "date": "2015-05-18"
  }, 
  {
    "deviation": "2.84", 
    "upperBand": "187.38", 
    "last": 182.3, 
    "lowerBand": "176.03", 
    "middleBand": "181.71", 
    "date": "2015-05-19"
  }, 
  {
    "deviation": "2.69", 
    "upperBand": "186.88", 
    "last": 181.5, 
    "lowerBand": "176.12", 
    "middleBand": "181.50", 
    "date": "2015-05-20"
  }, 
  {
    "deviation": "2.48", 
    "upperBand": "186.29", 
    "last": 183.2, 
    "lowerBand": "176.38", 
    "middleBand": "181.34", 
    "date": "2015-05-21"
  }, 
  {
    "deviation": "2.28", 
    "upperBand": "185.70", 
    "last": 181.9, 
    "lowerBand": "176.60", 
    "middleBand": "181.15", 
    "date": "2015-05-22"
  }, 
  {
    "deviation": "2.23", 
    "upperBand": "185.52", 
    "last": 181.4, 
    "lowerBand": "176.60", 
    "middleBand": "181.06", 
    "date": "2015-05-25"
  }, 
  {
    "deviation": "2.26", 
    "upperBand": "185.63", 
    "last": 183, 
    "lowerBand": "176.59", 
    "middleBand": "181.11", 
    "date": "2015-05-26"
  }, 
  {
    "deviation": "2.50", 
    "upperBand": "186.23", 
    "last": 187.3, 
    "lowerBand": "176.22", 
    "middleBand": "181.22", 
    "date": "2015-05-27"
  }, 
  {
    "deviation": "2.77", 
    "upperBand": "186.96", 
    "last": 187, 
    "lowerBand": "175.86", 
    "middleBand": "181.41", 
    "date": "2015-05-28"
  }, 
  {
    "deviation": "2.94", 
    "upperBand": "187.56", 
    "last": 186, 
    "lowerBand": "175.81", 
    "middleBand": "181.69", 
    "date": "2015-05-29"
  }, 
  {
    "deviation": "2.75", 
    "upperBand": "187.73", 
    "last": 186.3, 
    "lowerBand": "176.72", 
    "middleBand": "182.22", 
    "date": "2015-06-01"
  }, 
  {
    "deviation": "2.79", 
    "upperBand": "188.21", 
    "last": 186.8, 
    "lowerBand": "177.06", 
    "middleBand": "182.64", 
    "date": "2015-06-02"
  }, 
  {
    "deviation": "2.81", 
    "upperBand": "188.60", 
    "last": 186.5, 
    "lowerBand": "177.38", 
    "middleBand": "182.99", 
    "date": "2015-06-03"
  }, 
  {
    "deviation": "3.24", 
    "upperBand": "190.21", 
    "last": 192.6, 
    "lowerBand": "177.27", 
    "middleBand": "183.74", 
    "date": "2015-06-04"
  }, 
  {
    "deviation": "3.31", 
    "upperBand": "191.06", 
    "last": 191.4, 
    "lowerBand": "177.81", 
    "middleBand": "184.44", 
    "date": "2015-06-05"
  }, 
  {
    "deviation": "3.38", 
    "upperBand": "191.64", 
    "last": 189.6, 
    "lowerBand": "178.12", 
    "middleBand": "184.88", 
    "date": "2015-06-08"
  }, 
  {
    "deviation": "3.41", 
    "upperBand": "192.07", 
    "last": 189, 
    "lowerBand": "178.41", 
    "middleBand": "185.24", 
    "date": "2015-06-09"
  }, 
  {
    "deviation": "3.48", 
    "upperBand": "192.65", 
    "last": 190.5, 
    "lowerBand": "178.74", 
    "middleBand": "185.70", 
    "date": "2015-06-10"
  }, 
  {
    "deviation": "3.38", 
    "upperBand": "192.67", 
    "last": 186.5, 
    "lowerBand": "179.17", 
    "middleBand": "185.92", 
    "date": "2015-06-11"
  }, 
  {
    "deviation": "3.30", 
    "upperBand": "192.73", 
    "last": 186.9, 
    "lowerBand": "179.53", 
    "middleBand": "186.13", 
    "date": "2015-06-12"
  }, 
  {
    "deviation": "3.26", 
    "upperBand": "192.70", 
    "last": 183.8, 
    "lowerBand": "179.65", 
    "middleBand": "186.18", 
    "date": "2015-06-15"
  }, 
  {
    "deviation": "3.14", 
    "upperBand": "192.63", 
    "last": 185.8, 
    "lowerBand": "180.07", 
    "middleBand": "186.35", 
    "date": "2015-06-16"
  }, 
  {
    "deviation": "2.94", 
    "upperBand": "192.45", 
    "last": 186, 
    "lowerBand": "180.70", 
    "middleBand": "186.57", 
    "date": "2015-06-17"
  }, 
  {
    "deviation": "3.24", 
    "upperBand": "192.87", 
    "last": 179.6, 
    "lowerBand": "179.92", 
    "middleBand": "186.40", 
    "date": "2015-06-18"
  }, 
  {
    "deviation": "3.16", 
    "upperBand": "192.77", 
    "last": 183.2, 
    "lowerBand": "180.15", 
    "middleBand": "186.46", 
    "date": "2015-06-22"
  }, 
  {
    "deviation": "3.01", 
    "upperBand": "192.60", 
    "last": 183.6, 
    "lowerBand": "180.54", 
    "middleBand": "186.57", 
    "date": "2015-06-23"
  }, 
  {
    "deviation": "3.18", 
    "upperBand": "192.81", 
    "last": 180.8, 
    "lowerBand": "180.11", 
    "middleBand": "186.46", 
    "date": "2015-06-24"
  }, 
  {
    "deviation": "3.58", 
    "upperBand": "193.19", 
    "last": 178.8, 
    "lowerBand": "178.88", 
    "middleBand": "186.04", 
    "date": "2015-06-25"
  }, 
  {
    "deviation": "3.79", 
    "upperBand": "193.27", 
    "last": 180.2, 
    "lowerBand": "178.12", 
    "middleBand": "185.69", 
    "date": "2015-06-26"
  }, 
  {
    "deviation": "4.19", 
    "upperBand": "193.64", 
    "last": 177.5, 
    "lowerBand": "176.90", 
    "middleBand": "185.27", 
    "date": "2015-06-29"
  }, 
  {
    "deviation": "4.88", 
    "upperBand": "194.39", 
    "last": 173.7, 
    "lowerBand": "174.89", 
    "middleBand": "184.64", 
    "date": "2015-06-30"
  }, 
  {
    "deviation": "5.23", 
    "upperBand": "194.54", 
    "last": 175.5, 
    "lowerBand": "173.61", 
    "middleBand": "184.07", 
    "date": "2015-07-01"
  }, 
  {
    "deviation": "5.51", 
    "upperBand": "194.55", 
    "last": 175.7, 
    "lowerBand": "172.52", 
    "middleBand": "183.53", 
    "date": "2015-07-02"
  }, 
  {
    "deviation": "5.35", 
    "upperBand": "193.39", 
    "last": 175.6, 
    "lowerBand": "171.98", 
    "middleBand": "182.68", 
    "date": "2015-07-03"
  }, 
  {
    "deviation": "5.35", 
    "upperBand": "192.46", 
    "last": 173.1, 
    "lowerBand": "171.08", 
    "middleBand": "181.77", 
    "date": "2015-07-06"
  }, 
  {
    "deviation": "5.48", 
    "upperBand": "191.83", 
    "last": 171.4, 
    "lowerBand": "169.89", 
    "middleBand": "180.86", 
    "date": "2015-07-07"
  }, 
  {
    "deviation": "5.55", 
    "upperBand": "191.06", 
    "last": 171, 
    "lowerBand": "168.86", 
    "middleBand": "179.96", 
    "date": "2015-07-08"
  }, 
  {
    "deviation": "5.29", 
    "upperBand": "189.58", 
    "last": 171.5, 
    "lowerBand": "168.44", 
    "middleBand": "179.01", 
    "date": "2015-07-09"
  }, 
  {
    "deviation": "5.11", 
    "upperBand": "188.59", 
    "last": 173.8, 
    "lowerBand": "168.16", 
    "middleBand": "178.37", 
    "date": "2015-07-10"
  }, 
  {
    "deviation": "4.73", 
    "upperBand": "187.31", 
    "last": 176.5, 
    "lowerBand": "168.40", 
    "middleBand": "177.85", 
    "date": "2015-07-13"
  }, 
  {
    "deviation": "4.53", 
    "upperBand": "186.66", 
    "last": 178.6, 
    "lowerBand": "168.53", 
    "middleBand": "177.59", 
    "date": "2015-07-14"
  }, 
  {
    "deviation": "4.14", 
    "upperBand": "185.36", 
    "last": 175.3, 
    "lowerBand": "168.78", 
    "middleBand": "177.07", 
    "date": "2015-07-15"
  }, 
  {
    "deviation": "3.62", 
    "upperBand": "183.92", 
    "last": 178.2, 
    "lowerBand": "169.44", 
    "middleBand": "176.68", 
    "date": "2015-07-16"
  }, 
  {
    "deviation": "3.60", 
    "upperBand": "183.84", 
    "last": 179, 
    "lowerBand": "169.46", 
    "middleBand": "176.65", 
    "date": "2015-07-17"
  }, 
  {
    "deviation": "3.34", 
    "upperBand": "183.13", 
    "last": 179.4, 
    "lowerBand": "169.79", 
    "middleBand": "176.46", 
    "date": "2015-07-20"
  }, 
  {
    "deviation": "2.92", 
    "upperBand": "182.00", 
    "last": 177.5, 
    "lowerBand": "170.31", 
    "middleBand": "176.16", 
    "date": "2015-07-21"
  }, 
  {
    "deviation": "2.72", 
    "upperBand": "181.37", 
    "last": 176.2, 
    "lowerBand": "170.48", 
    "middleBand": "175.93", 
    "date": "2015-07-22"
  }, 
  {
    "deviation": "2.75", 
    "upperBand": "181.45", 
    "last": 179.3, 
    "lowerBand": "170.45", 
    "middleBand": "175.95", 
    "date": "2015-07-23"
  }, 
  {
    "deviation": "2.57", 
    "upperBand": "180.86", 
    "last": 175.5, 
    "lowerBand": "170.57", 
    "middleBand": "175.72", 
    "date": "2015-07-24"
  }, 
  {
    "deviation": "3.04", 
    "upperBand": "181.31", 
    "last": 168, 
    "lowerBand": "169.17", 
    "middleBand": "175.24", 
    "date": "2015-07-27"
  }, 
  {
    "deviation": "3.25", 
    "upperBand": "181.54", 
    "last": 169.8, 
    "lowerBand": "168.55", 
    "middleBand": "175.05", 
    "date": "2015-07-28"
  }, 
  {
    "deviation": "3.32", 
    "upperBand": "181.50", 
    "last": 171.8, 
    "lowerBand": "168.22", 
    "middleBand": "174.86", 
    "date": "2015-07-29"
  }, 
  {
    "deviation": "3.33", 
    "upperBand": "181.40", 
    "last": 173.5, 
    "lowerBand": "168.10", 
    "middleBand": "174.75", 
    "date": "2015-07-30"
  }, 
  {
    "deviation": "3.32", 
    "upperBand": "181.37", 
    "last": 175.1, 
    "lowerBand": "168.08", 
    "middleBand": "174.73", 
    "date": "2015-07-31"
  }, 
  {
    "deviation": "3.30", 
    "upperBand": "181.41", 
    "last": 174.8, 
    "lowerBand": "168.21", 
    "middleBand": "174.81", 
    "date": "2015-08-03"
  }, 
  {
    "deviation": "3.21", 
    "upperBand": "181.38", 
    "last": 174.5, 
    "lowerBand": "168.55", 
    "middleBand": "174.97", 
    "date": "2015-08-04"
  }, 
  {
    "deviation": "3.19", 
    "upperBand": "181.74", 
    "last": 179, 
    "lowerBand": "168.99", 
    "middleBand": "175.37", 
    "date": "2015-08-05"
  }, 
  {
    "deviation": "3.14", 
    "upperBand": "182.00", 
    "last": 178.7, 
    "lowerBand": "169.45", 
    "middleBand": "175.73", 
    "date": "2015-08-06"
  }, 
  {
    "deviation": "3.25", 
    "upperBand": "182.56", 
    "last": 180.3, 
    "lowerBand": "169.54", 
    "middleBand": "176.05", 
    "date": "2015-08-07"
  }, 
  {
    "deviation": "3.39", 
    "upperBand": "183.03", 
    "last": 180.4, 
    "lowerBand": "169.46", 
    "middleBand": "176.25", 
    "date": "2015-08-10"
  }, 
  {
    "deviation": "3.35", 
    "upperBand": "182.88", 
    "last": 177.1, 
    "lowerBand": "169.46", 
    "middleBand": "176.17", 
    "date": "2015-08-11"
  }, 
  {
    "deviation": "3.45", 
    "upperBand": "182.92", 
    "last": 172.4, 
    "lowerBand": "169.13", 
    "middleBand": "176.03", 
    "date": "2015-08-12"
  }, 
  {
    "deviation": "3.57", 
    "upperBand": "182.81", 
    "last": 171.1, 
    "lowerBand": "168.53", 
    "middleBand": "175.67", 
    "date": "2015-08-13"
  }, 
  {
    "deviation": "3.69", 
    "upperBand": "182.60", 
    "last": 169.9, 
    "lowerBand": "167.83", 
    "middleBand": "175.21", 
    "date": "2015-08-14"
  }, 
  {
    "deviation": "3.70", 
    "upperBand": "182.17", 
    "last": 170.5, 
    "lowerBand": "167.37", 
    "middleBand": "174.77", 
    "date": "2015-08-17"
  }, 
  {
    "deviation": "3.77", 
    "upperBand": "181.95", 
    "last": 170.2, 
    "lowerBand": "166.86", 
    "middleBand": "174.41", 
    "date": "2015-08-18"
  }, 
  {
    "deviation": "3.94", 
    "upperBand": "181.92", 
    "last": 168.7, 
    "lowerBand": "166.14", 
    "middleBand": "174.03", 
    "date": "2015-08-19"
  }, 
  {
    "deviation": "4.17", 
    "upperBand": "181.68", 
    "last": 165.4, 
    "lowerBand": "164.99", 
    "middleBand": "173.33", 
    "date": "2015-08-20"
  }, 
  {
    "deviation": "4.87", 
    "upperBand": "182.37", 
    "last": 161.5, 
    "lowerBand": "162.90", 
    "middleBand": "172.63", 
    "date": "2015-08-21"
  }, 
  {
    "deviation": "6.01", 
    "upperBand": "184.05", 
    "last": 156, 
    "lowerBand": "160.02", 
    "middleBand": "172.03", 
    "date": "2015-08-24"
  }, 
  {
    "deviation": "6.40", 
    "upperBand": "184.44", 
    "last": 161.7, 
    "lowerBand": "158.82", 
    "middleBand": "171.63", 
    "date": "2015-08-25"
  }, 
  {
    "deviation": "6.93", 
    "upperBand": "184.87", 
    "last": 159.5, 
    "lowerBand": "157.16", 
    "middleBand": "171.01", 
    "date": "2015-08-26"
  }, 
  {
    "deviation": "7.09", 
    "upperBand": "184.69", 
    "last": 163.5, 
    "lowerBand": "156.34", 
    "middleBand": "170.51", 
    "date": "2015-08-27"
  }, 
  {
    "deviation": "7.19", 
    "upperBand": "184.29", 
    "last": 162.9, 
    "lowerBand": "155.52", 
    "middleBand": "169.91", 
    "date": "2015-08-28"
  }, 
  {
    "deviation": "7.24", 
    "upperBand": "183.81", 
    "last": 163.2, 
    "lowerBand": "154.84", 
    "middleBand": "169.32", 
    "date": "2015-08-31"
  }, 
  {
    "deviation": "7.33", 
    "upperBand": "183.34", 
    "last": 161.5, 
    "lowerBand": "154.01", 
    "middleBand": "168.68", 
    "date": "2015-09-01"
  }, 
  {
    "deviation": "7.25", 
    "upperBand": "182.15", 
    "last": 158.4, 
    "lowerBand": "153.14", 
    "middleBand": "167.65", 
    "date": "2015-09-02"
  }, 
  {
    "deviation": "7.00", 
    "upperBand": "180.68", 
    "last": 159.4, 
    "lowerBand": "152.68", 
    "middleBand": "166.68", 
    "date": "2015-09-03"
  }, 
  {
    "deviation": "6.68", 
    "upperBand": "178.79", 
    "last": 155.3, 
    "lowerBand": "152.07", 
    "middleBand": "165.43", 
    "date": "2015-09-04"
  }, 
  {
    "deviation": "6.04", 
    "upperBand": "176.28", 
    "last": 155.9, 
    "lowerBand": "152.13", 
    "middleBand": "164.21", 
    "date": "2015-09-07"
  }, 
  {
    "deviation": "5.33", 
    "upperBand": "173.99", 
    "last": 159.7, 
    "lowerBand": "152.68", 
    "middleBand": "163.34", 
    "date": "2015-09-08"
  }, 
  {
    "deviation": "4.96", 
    "upperBand": "172.61", 
    "last": 159.6, 
    "lowerBand": "152.78", 
    "middleBand": "162.70", 
    "date": "2015-09-09"
  }, 
  {
    "deviation": "4.76", 
    "upperBand": "171.47", 
    "last": 156.1, 
    "lowerBand": "152.42", 
    "middleBand": "161.94", 
    "date": "2015-09-10"
  }, 
  {
    "deviation": "4.65", 
    "upperBand": "170.48", 
    "last": 154.6, 
    "lowerBand": "151.88", 
    "middleBand": "161.18", 
    "date": "2015-09-11"
  }, 
  {
    "deviation": "4.39", 
    "upperBand": "169.13", 
    "last": 153.8, 
    "lowerBand": "151.56", 
    "middleBand": "160.34", 
    "date": "2015-09-14"
  }, 
  {
    "deviation": "3.97", 
    "upperBand": "167.48", 
    "last": 154.1, 
    "lowerBand": "151.60", 
    "middleBand": "159.54", 
    "date": "2015-09-15"
  }, 
  {
    "deviation": "3.49", 
    "upperBand": "165.82", 
    "last": 154.9, 
    "lowerBand": "151.88", 
    "middleBand": "158.85", 
    "date": "2015-09-16"
  }, 
  {
    "deviation": "3.28", 
    "upperBand": "164.85", 
    "last": 154.2, 
    "lowerBand": "151.73", 
    "middleBand": "158.29", 
    "date": "2015-09-17"
  }, 
  {
    "deviation": "3.67", 
    "upperBand": "165.04", 
    "last": 149.9, 
    "lowerBand": "150.38", 
    "middleBand": "157.71", 
    "date": "2015-09-18"
  }, 
  {
    "deviation": "3.86", 
    "upperBand": "165.23", 
    "last": 151.9, 
    "lowerBand": "149.78", 
    "middleBand": "157.51", 
    "date": "2015-09-21"
  }, 
  {
    "deviation": "4.24", 
    "upperBand": "165.31", 
    "last": 148.1, 
    "lowerBand": "148.34", 
    "middleBand": "156.82", 
    "date": "2015-09-22"
  }, 
  {
    "deviation": "4.71", 
    "upperBand": "165.62", 
    "last": 146.9, 
    "lowerBand": "146.77", 
    "middleBand": "156.19", 
    "date": "2015-09-23"
  }, 
  {
    "deviation": "5.05", 
    "upperBand": "165.34", 
    "last": 144.5, 
    "lowerBand": "145.15", 
    "middleBand": "155.25", 
    "date": "2015-09-24"
  }, 
  {
    "deviation": "5.06", 
    "upperBand": "164.55", 
    "last": 146.6, 
    "lowerBand": "144.31", 
    "middleBand": "154.43", 
    "date": "2015-09-25"
  }, 
  {
    "deviation": "4.99", 
    "upperBand": "163.53", 
    "last": 145.6, 
    "lowerBand": "143.57", 
    "middleBand": "153.55", 
    "date": "2015-09-28"
  }, 
  {
    "deviation": "4.86", 
    "upperBand": "162.52", 
    "last": 146.5, 
    "lowerBand": "143.08", 
    "middleBand": "152.80", 
    "date": "2015-09-29"
  }, 
  {
    "deviation": "4.79", 
    "upperBand": "161.86", 
    "last": 148, 
    "lowerBand": "142.70", 
    "middleBand": "152.28", 
    "date": "2015-09-30"
  }, 
  {
    "deviation": "4.63", 
    "upperBand": "160.92", 
    "last": 146.9, 
    "lowerBand": "142.39", 
    "middleBand": "151.66", 
    "date": "2015-10-01"
  }, 
  {
    "deviation": "4.67", 
    "upperBand": "160.57", 
    "last": 146.7, 
    "lowerBand": "141.88", 
    "middleBand": "151.22", 
    "date": "2015-10-02"
  }
]